<?xml version="1.0" standalone="no"?>
<!DOCTYPE svg PUBLIC "-//W3C//DTD SVG 1.1//EN" "http://www.w3.org/Graphics/SVG/1.1/DTD/svg11.dtd">
<svg xmlns="http://www.w3.org/2000/svg">
<metadata>Copyright (C) 2019 by original authors @ fontello.com</metadata>
<defs>
<font id="fontello" horiz-adv-x="1000" >
<font-face font-family="fontello" font-weight="400" font-stretch="normal" units-per-em="1000" ascent="850" descent="-150" />
<missing-glyph horiz-adv-x="1000" />
<glyph glyph-name="twitter" unicode="&#xe800;" d="M350-121c455 0 704 374 704 698 0 10 0 21-1 31a499 499 0 0 1 123 127 497 497 0 0 0-142-38 246 246 0 0 1 109 135 498 498 0 0 0-157-59 248 248 0 0 1-181 77c-136 0-247-109-247-245 0-19 2-38 7-56a705 705 0 0 0-510 256 243 243 0 0 1-34-123c0-85 44-160 110-204a247 247 0 0 0-112 31l0-3c0-119 85-218 199-241a251 251 0 0 0-112-4 248 248 0 0 1 231-170 500 500 0 0 0-307-105c-20 0-40 1-59 3a705 705 0 0 1 379-110" horiz-adv-x="1176" />

<glyph glyph-name="vk" unicode="&#xe801;" d="M1570 749c11 38 0 66-54 66h-175c-45 0-66-24-77-51 0 0-89-220-216-363-41-41-59-54-82-54-11 0-27 13-27 50v352c0 46-13 66-50 66h-276c-28 0-45-21-45-41 0-43 63-53 70-173v-262c0-57-11-68-33-68-59 0-204 221-290 475-17 49-34 69-79 69h-176c-50 0-60-24-60-51 0-47 59-280 277-589 146-211 350-325 536-325 112 0 126 25 126 69v160c0 50 10 61 46 61 26 0 71-14 175-115 119-121 139-175 206-175h175c51 0 76 25 61 75-16 50-72 123-148 209-41 49-102 101-121 128-26 34-19 49 0 79 0 0 214 305 237 408z" horiz-adv-x="1643" />

<glyph glyph-name="additional" unicode="&#xe802;" d="M1000 531v-606a75 75 0 0 0-75-75h-606a75 75 0 0 0-75 75v169h-169a75 75 0 0 0-75 75v606c0 41 34 75 75 75h606c41 0 75-34 75-75v-169h169c41 0 75-34 75-75z m-689-606c0-5 3-8 8-8h606c5 0 8 3 8 8v606c0 5-3 8-8 8h-606c-5 0-8-3-8-8z m-244 244c0-5 3-8 8-8h169v370c0 41 34 75 75 75h370v169c0 5-3 8-8 8h-606c-5 0-8-3-8-8z m354 34a33 33 0 0 0 24 58h144v145a33 33 0 0 0 34 33c18 0 33-15 33-34v-144h144a34 34 0 0 0 34-34 33 33 0 0 0-34-32h-144v-145a34 34 0 0 0-34-34h0a33 33 0 0 0-33 34v144h-145a33 33 0 0 0-23 9z" horiz-adv-x="1000" />

<glyph glyph-name="ads" unicode="&#xe803;" d="M1443 809a40 40 0 0 0-16-55l-279-159a40 40 0 0 0-54 14 40 40 0 0 0 14 55l279 160a40 40 0 0 0 56-15z m-474 20c22 0 40-18 40-40v-679a40 40 0 0 0-58-36l-310 156h-57l104-307a40 40 0 0 0-38-53h-219a40 40 0 0 0-38 28l-113 332h-48c-120 0-219 100-219 219 0 120 99 220 219 220h408l311 156a40 40 0 0 0 18 4z m-301-236a39 39 0 0 0-18-4h-418c-75 0-139-66-139-140s64-139 139-139h418a40 40 0 0 0 18-4l261-131v549z m460-104h280c22 0 40-18 39-40a40 40 0 0 0-40-40h-279a40 40 0 0 0-42 38 40 40 0 0 0 42 42z m20-184l279-160 0 0a40 40 0 0 0 15-55 40 40 0 0 0-55-14l-279 159a40 40 0 1 0 40 70z m-688-355h134l-95 280h-134z" horiz-adv-x="1480" />

<glyph glyph-name="arrow" unicode="&#xe804;" d="M171-149l-171 180 777 819 779-819-172-180-607 640z" horiz-adv-x="1556" />

<glyph glyph-name="arrow_telegram" unicode="&#xe805;" d="M31-40l114-110 511 500-511 500-114-110 401-390z" horiz-adv-x="688" />

<glyph glyph-name="back" unicode="&#xe806;" d="M47 316l368-415c18-21 53-24 74-6 20 18 23 53 5 74l-291 329h2211a52 52 0 0 1 53 52 52 52 0 0 1-53 51h-2211l291 329c18 21 15 55-5 74-21 19-56 15-74-6l-369-414c-17-27-14-47 0-68z" horiz-adv-x="2467" />

<glyph glyph-name="btn_arrow" unicode="&#xe807;" d="M3236 313l-394-444c-20-23-57-26-80-6-22 19-25 56-6 78l313 353h-3013a56 56 0 0 0-56 56c0 30 25 55 56 55h3013l-313 353c-19 22-16 58 6 78 23 21 60 17 80-6l394-444c19-29 16-50 0-73z" horiz-adv-x="3286" />

<glyph glyph-name="calculator" unicode="&#xe808;" d="M738 826v-976h-714v976z m-499-786c0 30-24 54-53 54-30 0-54-24-54-54 0-29 24-53 54-53 29 0 53 24 53 53z m0 173a54 54 0 0 1-53 54c-30 0-54-24-54-54 0-29 24-53 54-53 29 0 53 24 53 53z m0 174c0 29-24 53-53 53-30 0-54-24-54-53 0-30 24-54 54-54 29 0 53 24 53 54z m189-347c0 30-24 54-54 54-30 0-54-24-54-54 0-29 24-53 54-53 30 0 54 24 54 53z m0 173c0 30-24 54-54 54-30 0-54-24-54-54 0-29 24-53 54-53 30 0 54 24 54 53z m0 174c0 29-24 53-54 53-30 0-54-24-54-53 0-30 24-54 54-54 30 0 54 24 54 54z m189-347c0 30-24 54-54 54-30 0-54-24-54-54 0-29 24-53 54-53 30 0 54 24 54 53z m0 173c0 30-24 54-54 54-30 0-54-24-54-54 0-29 24-53 54-53 30 0 54 24 54 53z m0 174c0 29-24 53-54 53-30 0-54-24-54-53 0-30 24-54 54-54 30 0 54 24 54 54z m13 333h-498v-133h498z" horiz-adv-x="762" />

<glyph glyph-name="check" unicode="&#xe809;" d="M1198 805l-698-713-335 341-119-122 395-404 59-57 59 57 759 777z" horiz-adv-x="1364" />

<glyph glyph-name="cross" unicode="&#xe80a;" d="M18-93c24-25 64-25 89 0l357 357 358-357a63 63 0 0 1 88 88l-358 358 358 357a63 63 0 1 1-89 88l-357-357-358 357a63 63 0 0 1-88-88l357-357-357-358a63 63 0 0 1 0-88z" horiz-adv-x="923" />

<glyph glyph-name="facebook" unicode="&#xe80b;" d="M923 825h-846c-29 0-52-23-52-52v-846c0-29 23-52 52-52h455v368h-123v143h123v106c0 123 75 190 185 190 52 0 97-4 110-6v-128l-75 0c-60 0-72-29-72-70v-92h142l-18-143h-124v-368h243c29 0 52 23 52 52v846c0 29-24 52-52 52z" horiz-adv-x="1000" />

<glyph glyph-name="icon_mobile" unicode="&#xe80c;" d="M619 753v-798a97 97 0 0 0-94-94h-420a97 97 0 0 0-94 94v800a97 97 0 0 0 94 95h420a97 97 0 0 0 94-97z m-374 26c0-13 10-24 23-24h94c13 0 24 11 24 24 0 13-11 24-24 24h-94c-13 0-23-11-23-24z m117-828a47 47 0 0 1-47 47 47 47 0 0 1-47-47c0-26 21-48 47-48s47 22 47 48z m165 757h-424v-663h424z" horiz-adv-x="630" />

<glyph glyph-name="icon_telegram" unicode="&#xe80d;" d="M1203 804c-39-183-144-694-187-896a57 57 0 0 0-36-41 59 59 0 0 0-55 7c-100 71-277 201-277 201l-154-145c-11-10-26-14-40-10a43 43 0 0 0-30 29 62866 62866 0 0 0-110 326s-154 49-272 84a41 41 0 0 0-29 38c-1 17 10 33 27 39 262 96 903 336 1111 412 13 5 29 3 39-7 11-9 16-23 13-37z m-215-129a14 14 0 0 1-19 3l-590-375 83-274 19 173 505 454a14 14 0 0 1 2 19z" horiz-adv-x="1216" />

<glyph glyph-name="info" unicode="&#xe80e;" d="M1000 336a485 485 0 0 0-971 0 485 485 0 0 0 971 0z m-433-225a31 31 0 0 1-31 31h-78a31 31 0 0 1-31-31v-50c0-17 14-31 31-31h78a31 31 0 0 1 31 31z m155 348c0 56-19 101-57 134-37 32-89 49-154 49-62 0-111-15-148-44-33-25-52-61-55-109a19 19 0 0 1 19-20l89-2a32 32 0 0 1 32 22 52 52 0 0 0 16 28 69 69 0 0 0 47 17c22 0 39-7 52-21 13-14 19-33 19-55 0-23-5-43-16-60a138 138 0 0 0-44-43c-35-24-60-47-74-66-11-16-18-37-20-64a22 22 0 0 1 22-22h96c11 0 21 7 22 18 2 14 5 26 9 35 6 14 18 26 36 38 32 17 57 40 78 68a166 166 0 0 1 31 97z" horiz-adv-x="1000" />

<glyph glyph-name="result" unicode="&#xe80f;" d="M626 2c0-74-59-135-131-135-73 0-132 61-132 135 0 74 59 134 132 134 73 0 131-59 131-134z m-86 0c0 26-21 48-45 48-26 0-46-22-46-48 0-26 21-49 46-49 24 0 45 23 45 49z m496 0c0-74-59-135-131-135-73 0-132 61-132 135 0 74 59 134 132 134 72 0 131-60 131-134z m-131 48c-26 0-46-22-46-48 0-26 21-49 46-49 24 0 45 23 45 49 0 26-21 48-45 48z m302 651l-155-515h-681l-178 578h-193v86h257l45-149z m-879-88l106-342h556l103 342z" horiz-adv-x="1207" />
</font>
</defs>
</svg>